<?xml version="1.0" encoding="UTF-8" standalone="no"?>
<!DOCTYPE svg PUBLIC "-//W3C//DTD SVG 1.1//EN" "http://www.w3.org/Graphics/SVG/1.1/DTD/svg11.dtd">
<!-- Generated by Microsoft Visio, SVG Export Agenda.svg Page-1 -->
<svg xmlns="http://www.w3.org/2000/svg" xmlns:xlink="http://www.w3.org/1999/xlink" xmlns:ev="http://www.w3.org/2001/xml-events"
		xmlns:v="http://schemas.microsoft.com/visio/2003/SVGExtensions/" width="11in" height="8.5in" viewBox="0 0 792 612"
		xml:space="preserve" color-interpolation-filters="sRGB" class="st6">
	<v:documentProperties v:langID="1033" v:viewMarkup="false">
		<v:userDefs>
			<v:ud v:nameU="msvSubprocessMaster" v:prompt="" v:val="VT4(Rectangle)"/>
			<v:ud v:nameU="msvNoAutoConnect" v:val="VT0(1):26"/>
		</v:userDefs>
	</v:documentProperties>

	<style type="text/css">
	<![CDATA[
		.st1 {fill:#4672c4;stroke:#c7c8c8;stroke-width:0.25}
		.st2 {fill:none;stroke:none;stroke-width:0.25}
		.st3 {fill:#000000;font-family:Calibri;font-size:1.16666em;font-weight:bold}
		.st4 {fill:#000000;font-family:Calibri;font-size:1.00001em}
		.st5 {font-size:1em}
		.st6 {fill:none;fill-rule:evenodd;font-size:12px;overflow:visible;stroke-linecap:square;stroke-miterlimit:3}
	]]>
	</style>

	<g v:mID="0" v:index="1" v:groupContext="foregroundPage">
		<v:userDefs>
			<v:ud v:nameU="msvThemeOrder" v:val="VT0(0):26"/>
		</v:userDefs>
		<title>Page-1</title>
		<v:pageProperties v:drawingScale="1" v:pageScale="1" v:drawingUnits="0" v:shadowOffsetX="9" v:shadowOffsetY="-9"/>
		<g id="shape1-1" v:mID="1" v:groupContext="shape" transform="translate(243,-279.2)">
			<title>Triangle</title>
			<v:userDefs>
				<v:ud v:nameU="visVersion" v:val="VT0(15):26"/>
			</v:userDefs>
			<path d="M270 612 L135 440.4 L0 612 L270 612 Z" class="st1"/>
		</g>
		<g id="shape2-3" v:mID="2" v:groupContext="shape" transform="translate(302,-458)">
			<title>Sheet.2</title>
			<desc>Architecture</desc>
			<v:textBlock v:margins="rect(4,4,4,4)"/>
			<v:textRect cx="76" cy="602" width="152" height="20"/>
			<rect x="0" y="592" width="152" height="20" class="st2"/>
			<text x="39.79" y="606.2" class="st3" v:langID="1033"><v:paragraph v:horizAlign="1"/><v:tabList/>Architecture</text>		</g>
		<g id="shape4-6" v:mID="4" v:groupContext="shape" transform="translate(198,-252)">
			<title>Sheet.4</title>
			<desc>Process</desc>
			<v:textBlock v:margins="rect(4,4,4,4)"/>
			<v:textRect cx="54" cy="602" width="108" height="20"/>
			<rect x="0" y="592" width="108" height="20" class="st2"/>
			<text x="31.99" y="606.2" class="st3" v:langID="1033"><v:paragraph v:horizAlign="1"/><v:tabList/>Process</text>		</g>
		<g id="shape6-9" v:mID="6" v:groupContext="shape" transform="translate(450,-252)">
			<title>Sheet.6</title>
			<desc>Organization</desc>
			<v:textBlock v:margins="rect(4,4,4,4)"/>
			<v:textRect cx="54" cy="602" width="108" height="20"/>
			<rect x="0" y="592" width="108" height="20" class="st2"/>
			<text x="16.63" y="606.2" class="st3" v:langID="1033"><v:paragraph v:horizAlign="1"/><v:tabList/>Organization</text>		</g>
		<g id="shape7-12" v:mID="7" v:groupContext="shape" transform="translate(428,-216)">
			<title>Sheet.7</title>
			<desc>Small Autonomous Team</desc>
			<v:textBlock v:margins="rect(4,4,4,4)"/>
			<v:textRect cx="76" cy="602" width="152" height="20"/>
			<rect x="0" y="592" width="152" height="20" class="st2"/>
			<text x="62.82" y="591.2" class="st4" v:langID="1033"><v:paragraph v:horizAlign="1"/><v:tabList/>Small<v:newlineChar/><tspan
						x="44.43" dy="1.2em" class="st5">Autonomous<v:newlineChar/></tspan><tspan x="62.42" dy="1.2em" class="st5">Team</tspan></text>		</g>
	</g>
</svg>
